regfile.vcd
$version Generated by VerilatedVcd $end
$timescale 1ps $end
 $scope module TOP $end
  $scope module register_tb $end
   $var wire 1 R clk $end
   $var wire 1 # rst $end
   $var wire 1 $ we $end
   $var wire 5 % rs1 [4:0] $end
   $var wire 5 & rs2 [4:0] $end
   $var wire 5 ' rd [4:0] $end
   $var wire 32 ( wd [31:0] $end
   $var wire 32 S rd1 [31:0] $end
   $var wire 32 T rd2 [31:0] $end
   $var wire 32 U TOTAL_TESTS [31:0] $end
   $var wire 32 ) tests_passed [31:0] $end
   $scope module dut $end
    $var wire 1 R clk $end
    $var wire 1 # rst $end
    $var wire 1 $ we $end
    $var wire 5 % rs1 [4:0] $end
    $var wire 5 & rs2 [4:0] $end
    $var wire 5 ' rd [4:0] $end
    $var wire 32 ( wd [31:0] $end
    $var wire 32 S rd1 [31:0] $end
    $var wire 32 T rd2 [31:0] $end
    $var wire 32 2 regs[0] [31:0] $end
    $var wire 32 3 regs[1] [31:0] $end
    $var wire 32 4 regs[2] [31:0] $end
    $var wire 32 5 regs[3] [31:0] $end
    $var wire 32 6 regs[4] [31:0] $end
    $var wire 32 7 regs[5] [31:0] $end
    $var wire 32 8 regs[6] [31:0] $end
    $var wire 32 9 regs[7] [31:0] $end
    $var wire 32 : regs[8] [31:0] $end
    $var wire 32 ; regs[9] [31:0] $end
    $var wire 32 < regs[10] [31:0] $end
    $var wire 32 = regs[11] [31:0] $end
    $var wire 32 > regs[12] [31:0] $end
    $var wire 32 ? regs[13] [31:0] $end
    $var wire 32 @ regs[14] [31:0] $end
    $var wire 32 A regs[15] [31:0] $end
    $var wire 32 B regs[16] [31:0] $end
    $var wire 32 C regs[17] [31:0] $end
    $var wire 32 D regs[18] [31:0] $end
    $var wire 32 E regs[19] [31:0] $end
    $var wire 32 F regs[20] [31:0] $end
    $var wire 32 G regs[21] [31:0] $end
    $var wire 32 H regs[22] [31:0] $end
    $var wire 32 I regs[23] [31:0] $end
    $var wire 32 J regs[24] [31:0] $end
    $var wire 32 K regs[25] [31:0] $end
    $var wire 32 L regs[26] [31:0] $end
    $var wire 32 M regs[27] [31:0] $end
    $var wire 32 N regs[28] [31:0] $end
    $var wire 32 O regs[29] [31:0] $end
    $var wire 32 P regs[30] [31:0] $end
    $var wire 32 Q regs[31] [31:0] $end
   $upscope $end
   $scope module unnamedblk1 $end
    $var wire 32 * ok [31:0] $end
   $upscope $end
   $scope module unnamedblk2 $end
    $var wire 32 + ok [31:0] $end
   $upscope $end
   $scope module unnamedblk3 $end
    $var wire 32 , ok [31:0] $end
   $upscope $end
   $scope module unnamedblk4 $end
    $var wire 32 - ok [31:0] $end
   $upscope $end
   $scope module unnamedblk5 $end
    $var wire 32 . ok [31:0] $end
   $upscope $end
   $scope module unnamedblk6 $end
    $var wire 32 / ok [31:0] $end
   $upscope $end
   $scope module unnamedblk7 $end
    $var wire 32 0 ok [31:0] $end
   $upscope $end
   $scope module unnamedblk8 $end
    $var wire 32 1 ok [31:0] $end
   $upscope $end
  $upscope $end
 $upscope $end
$enddefinitions $end


#0
1#
0$
b00000 %
b00000 &
b00000 '
b00000000000000000000000000000000 (
b00000000000000000000000000000000 )
b00000000000000000000000000000000 *
b00000000000000000000000000000000 +
b00000000000000000000000000000000 ,
b00000000000000000000000000000000 -
b00000000000000000000000000000000 .
b00000000000000000000000000000000 /
b00000000000000000000000000000000 0
b00000000000000000000000000000000 1
b00000000000000000000000000000000 2
b00000000000000000000000000000000 3
b00000000000000000000000000000000 4
b00000000000000000000000000000000 5
b00000000000000000000000000000000 6
b00000000000000000000000000000000 7
b00000000000000000000000000000000 8
b00000000000000000000000000000000 9
b00000000000000000000000000000000 :
b00000000000000000000000000000000 ;
b00000000000000000000000000000000 <
b00000000000000000000000000000000 =
b00000000000000000000000000000000 >
b00000000000000000000000000000000 ?
b00000000000000000000000000000000 @
b00000000000000000000000000000000 A
b00000000000000000000000000000000 B
b00000000000000000000000000000000 C
b00000000000000000000000000000000 D
b00000000000000000000000000000000 E
b00000000000000000000000000000000 F
b00000000000000000000000000000000 G
b00000000000000000000000000000000 H
b00000000000000000000000000000000 I
b00000000000000000000000000000000 J
b00000000000000000000000000000000 K
b00000000000000000000000000000000 L
b00000000000000000000000000000000 M
b00000000000000000000000000000000 N
b00000000000000000000000000000000 O
b00000000000000000000000000000000 P
b00000000000000000000000000000000 Q
0R
b00000000000000000000000000000000 S
b00000000000000000000000000000000 T
b00000000000000000000000000001000 U
#5
1R
#10
0#
0R
#11
1$
b00001 '
b00000000000000000000000000001010 (
b00000000000000000000000000000001 )
b00000000000000000000000000000001 *
#15
0$
b00001 %
1R
#16
1$
b00010 '
b00000000000000000000000000010100 (
#20
0R
#25
0$
b00010 %
1R
#26
b00001 %
b00010 &
#27
1$
b00001 '
b00000000000000000000000001100011 (
#30
0R
#35
0$
1R
#36
1$
b00000 '
b00000000000000000000010011010010 (
#40
0R
#45
0$
b00000 %
1R
#46
1$
b00011 %
b00011 '
b00000000000000000000000000110111 (
b00000000000000000000000000000010 )
b00000000000000000000000000000001 /
#50
0R
#55
0$
1R
#56
1#
#60
0R
#65
0#
b00001 %
1R
#66
b00000000000000000000000000000011 )
b00000000000000000000000000000001 1
