uart_tx.vcd
$version Generated by VerilatedVcd $end
$timescale 1ps $end
 $scope module TOP $end
  $scope module uart_tx_tb $end
   $var wire 1 ) clk $end
   $var wire 1 * rst $end
   $var wire 1 + tx_start $end
   $var wire 8 , tx_data [7:0] $end
   $var wire 1 # tx $end
   $var wire 1 $ tx_busy $end
   $scope module dut $end
    $var wire 16 - CLKS_PER_BIT [15:0] $end
    $var wire 1 ) clk $end
    $var wire 1 * rst $end
    $var wire 1 + tx_start $end
    $var wire 8 , tx_data [7:0] $end
    $var wire 1 # tx $end
    $var wire 1 $ tx_busy $end
    $var wire 3 % state [2:0] $end
    $var wire 16 & clk_count [15:0] $end
    $var wire 3 ' bit_index [2:0] $end
    $var wire 8 ( data_reg [7:0] $end
   $upscope $end
  $upscope $end
 $upscope $end
$enddefinitions $end


#0
0#
0$
b000 %
b0000000000000000 &
b000 '
b00000000 (
0)
1*
0+
b00000000 ,
b0000000000001010 -
#5
1#
1)
#10
0)
#15
1)
#20
0)
#25
1)
#30
0)
#35
1)
#40
0)
#45
1)
0*
#50
0)
#55
1$
b001 %
b01000001 (
1)
1+
b01000001 ,
#60
0)
#65
0#
b0000000000000001 &
1)
0+
#70
0)
#75
b0000000000000010 &
1)
#80
0)
#85
b0000000000000011 &
1)
#90
0)
#95
b0000000000000100 &
1)
#100
0)
#105
b0000000000000101 &
1)
#110
0)
#115
b0000000000000110 &
1)
#120
0)
#125
b0000000000000111 &
1)
#130
0)
#135
b0000000000001000 &
1)
#140
0)
#145
b0000000000001001 &
1)
#150
0)
#155
b010 %
b0000000000000000 &
1)
#160
0)
#165
1#
b0000000000000001 &
1)
#170
0)
#175
b0000000000000010 &
1)
#180
0)
#185
b0000000000000011 &
1)
#190
0)
#195
b0000000000000100 &
1)
#200
0)
#205
b0000000000000101 &
1)
#210
0)
#215
b0000000000000110 &
1)
#220
0)
#225
b0000000000000111 &
1)
#230
0)
#235
b0000000000001000 &
1)
#240
0)
#245
b0000000000001001 &
1)
#250
0)
#255
b0000000000000000 &
b001 '
1)
#260
0)
#265
0#
b0000000000000001 &
1)
#270
0)
#275
b0000000000000010 &
1)
#280
0)
#285
b0000000000000011 &
1)
#290
0)
#295
b0000000000000100 &
1)
#300
0)
#305
b0000000000000101 &
1)
#310
0)
#315
b0000000000000110 &
1)
#320
0)
#325
b0000000000000111 &
1)
#330
0)
#335
b0000000000001000 &
1)
#340
0)
#345
b0000000000001001 &
1)
#350
0)
#355
b0000000000000000 &
b010 '
1)
#360
0)
#365
b0000000000000001 &
1)
#370
0)
#375
b0000000000000010 &
1)
#380
0)
#385
b0000000000000011 &
1)
#390
0)
#395
b0000000000000100 &
1)
#400
0)
#405
b0000000000000101 &
1)
#410
0)
#415
b0000000000000110 &
1)
#420
0)
#425
b0000000000000111 &
1)
#430
0)
#435
b0000000000001000 &
1)
#440
0)
#445
b0000000000001001 &
1)
#450
0)
#455
b0000000000000000 &
b011 '
1)
#460
0)
#465
b0000000000000001 &
1)
#470
0)
#475
b0000000000000010 &
1)
#480
0)
#485
b0000000000000011 &
1)
#490
0)
#495
b0000000000000100 &
1)
#500
0)
#505
b0000000000000101 &
1)
#510
0)
#515
b0000000000000110 &
1)
#520
0)
#525
b0000000000000111 &
1)
#530
0)
#535
b0000000000001000 &
1)
#540
0)
#545
b0000000000001001 &
1)
#550
0)
#555
b0000000000000000 &
b100 '
1)
#560
0)
#565
b0000000000000001 &
1)
#570
0)
#575
b0000000000000010 &
1)
#580
0)
#585
b0000000000000011 &
1)
#590
0)
#595
b0000000000000100 &
1)
#600
0)
#605
b0000000000000101 &
1)
#610
0)
#615
b0000000000000110 &
1)
#620
0)
#625
b0000000000000111 &
1)
#630
0)
#635
b0000000000001000 &
1)
#640
0)
#645
b0000000000001001 &
1)
#650
0)
#655
b0000000000000000 &
b101 '
1)
#660
0)
#665
b0000000000000001 &
1)
#670
0)
#675
b0000000000000010 &
1)
#680
0)
#685
b0000000000000011 &
1)
#690
0)
#695
b0000000000000100 &
1)
#700
0)
#705
b0000000000000101 &
1)
#710
0)
#715
b0000000000000110 &
1)
#720
0)
#725
b0000000000000111 &
1)
#730
0)
#735
b0000000000001000 &
1)
#740
0)
#745
b0000000000001001 &
1)
#750
0)
#755
b0000000000000000 &
b110 '
1)
#760
0)
#765
1#
b0000000000000001 &
1)
#770
0)
#775
b0000000000000010 &
1)
#780
0)
#785
b0000000000000011 &
1)
#790
0)
#795
b0000000000000100 &
1)
#800
0)
#805
b0000000000000101 &
1)
#810
0)
#815
b0000000000000110 &
1)
#820
0)
#825
b0000000000000111 &
1)
#830
0)
#835
b0000000000001000 &
1)
#840
0)
#845
b0000000000001001 &
1)
#850
0)
#855
b0000000000000000 &
b111 '
1)
#860
0)
#865
0#
b0000000000000001 &
1)
#870
0)
#875
b0000000000000010 &
1)
#880
0)
#885
b0000000000000011 &
1)
#890
0)
#895
b0000000000000100 &
1)
#900
0)
#905
b0000000000000101 &
1)
#910
0)
#915
b0000000000000110 &
1)
#920
0)
#925
b0000000000000111 &
1)
#930
0)
#935
b0000000000001000 &
1)
#940
0)
#945
b0000000000001001 &
1)
#950
0)
#955
b011 %
b0000000000000000 &
b000 '
1)
#960
0)
#965
1#
b0000000000000001 &
1)
#970
0)
#975
b0000000000000010 &
1)
#980
0)
#985
b0000000000000011 &
1)
#990
0)
#995
b0000000000000100 &
1)
#1000
0)
#1005
b0000000000000101 &
1)
#1010
0)
#1015
b0000000000000110 &
1)
#1020
0)
#1025
b0000000000000111 &
1)
#1030
0)
#1035
b0000000000001000 &
1)
#1040
0)
#1045
b0000000000001001 &
1)
#1050
0)
#1055
b000 %
b0000000000000000 &
1)
#1060
0)
#1065
0$
1)
#1070
0)
#1075
1)
#1080
0)
#1085
1)
#1090
0)
#1095
1)
#1100
0)
#1105
1)
#1110
0)
#1115
1)
#1120
0)
#1125
1$
b001 %
b01011010 (
1)
1+
b01011010 ,
#1130
0)
#1135
0#
b0000000000000001 &
1)
0+
#1140
0)
#1145
b0000000000000010 &
1)
#1150
0)
#1155
b0000000000000011 &
1)
#1160
0)
#1165
b0000000000000100 &
1)
#1170
0)
#1175
b0000000000000101 &
1)
#1180
0)
#1185
b0000000000000110 &
1)
#1190
0)
#1195
b0000000000000111 &
1)
#1200
0)
#1205
b0000000000001000 &
1)
#1210
0)
#1215
b0000000000001001 &
1)
#1220
0)
#1225
b010 %
b0000000000000000 &
1)
#1230
0)
#1235
b0000000000000001 &
1)
#1240
0)
#1245
b0000000000000010 &
1)
#1250
0)
#1255
b0000000000000011 &
1)
#1260
0)
#1265
b0000000000000100 &
1)
#1270
0)
#1275
b0000000000000101 &
1)
#1280
0)
#1285
b0000000000000110 &
1)
#1290
0)
#1295
b0000000000000111 &
1)
#1300
0)
#1305
b0000000000001000 &
1)
#1310
0)
#1315
b0000000000001001 &
1)
#1320
0)
#1325
b0000000000000000 &
b001 '
1)
#1330
0)
#1335
1#
b0000000000000001 &
1)
#1340
0)
#1345
b0000000000000010 &
1)
#1350
0)
#1355
b0000000000000011 &
1)
#1360
0)
#1365
b0000000000000100 &
1)
#1370
0)
#1375
b0000000000000101 &
1)
#1380
0)
#1385
b0000000000000110 &
1)
#1390
0)
#1395
b0000000000000111 &
1)
#1400
0)
#1405
b0000000000001000 &
1)
#1410
0)
#1415
b0000000000001001 &
1)
#1420
0)
#1425
b0000000000000000 &
b010 '
1)
#1430
0)
#1435
0#
b0000000000000001 &
1)
#1440
0)
#1445
b0000000000000010 &
1)
#1450
0)
#1455
b0000000000000011 &
1)
#1460
0)
#1465
b0000000000000100 &
1)
#1470
0)
#1475
b0000000000000101 &
1)
#1480
0)
#1485
b0000000000000110 &
1)
#1490
0)
#1495
b0000000000000111 &
1)
#1500
0)
#1505
b0000000000001000 &
1)
#1510
0)
#1515
b0000000000001001 &
1)
#1520
0)
#1525
b0000000000000000 &
b011 '
1)
#1530
0)
#1535
1#
b0000000000000001 &
1)
#1540
0)
#1545
b0000000000000010 &
1)
#1550
0)
#1555
b0000000000000011 &
1)
#1560
0)
#1565
b0000000000000100 &
1)
#1570
0)
#1575
b0000000000000101 &
1)
#1580
0)
#1585
b0000000000000110 &
1)
#1590
0)
#1595
b0000000000000111 &
1)
#1600
0)
#1605
b0000000000001000 &
1)
#1610
0)
#1615
b0000000000001001 &
1)
#1620
0)
#1625
b0000000000000000 &
b100 '
1)
#1630
0)
#1635
b0000000000000001 &
1)
#1640
0)
#1645
b0000000000000010 &
1)
#1650
0)
#1655
b0000000000000011 &
1)
#1660
0)
#1665
b0000000000000100 &
1)
#1670
0)
#1675
b0000000000000101 &
1)
#1680
0)
#1685
b0000000000000110 &
1)
#1690
0)
#1695
b0000000000000111 &
1)
#1700
0)
#1705
b0000000000001000 &
1)
#1710
0)
#1715
b0000000000001001 &
1)
#1720
0)
#1725
b0000000000000000 &
b101 '
1)
#1730
0)
#1735
0#
b0000000000000001 &
1)
#1740
0)
#1745
b0000000000000010 &
1)
#1750
0)
#1755
b0000000000000011 &
1)
#1760
0)
#1765
b0000000000000100 &
1)
#1770
0)
#1775
b0000000000000101 &
1)
#1780
0)
#1785
b0000000000000110 &
1)
#1790
0)
#1795
b0000000000000111 &
1)
#1800
0)
#1805
b0000000000001000 &
1)
#1810
0)
#1815
b0000000000001001 &
1)
#1820
0)
#1825
b0000000000000000 &
b110 '
1)
#1830
0)
#1835
1#
b0000000000000001 &
1)
#1840
0)
#1845
b0000000000000010 &
1)
#1850
0)
#1855
b0000000000000011 &
1)
#1860
0)
#1865
b0000000000000100 &
1)
#1870
0)
#1875
b0000000000000101 &
1)
#1880
0)
#1885
b0000000000000110 &
1)
#1890
0)
#1895
b0000000000000111 &
1)
#1900
0)
#1905
b0000000000001000 &
1)
#1910
0)
#1915
b0000000000001001 &
1)
#1920
0)
#1925
b0000000000000000 &
b111 '
1)
#1930
0)
#1935
0#
b0000000000000001 &
1)
#1940
0)
#1945
b0000000000000010 &
1)
#1950
0)
#1955
b0000000000000011 &
1)
#1960
0)
#1965
b0000000000000100 &
1)
#1970
0)
#1975
b0000000000000101 &
1)
#1980
0)
#1985
b0000000000000110 &
1)
#1990
0)
#1995
b0000000000000111 &
1)
#2000
0)
#2005
b0000000000001000 &
1)
#2010
0)
#2015
b0000000000001001 &
1)
#2020
0)
#2025
b011 %
b0000000000000000 &
b000 '
1)
#2030
0)
#2035
1#
b0000000000000001 &
1)
#2040
0)
#2045
b0000000000000010 &
1)
#2050
0)
#2055
b0000000000000011 &
1)
#2060
0)
#2065
b0000000000000100 &
1)
#2070
0)
#2075
b0000000000000101 &
1)
#2080
0)
#2085
b0000000000000110 &
1)
#2090
0)
#2095
b0000000000000111 &
1)
#2100
0)
#2105
b0000000000001000 &
1)
#2110
0)
#2115
b0000000000001001 &
1)
#2120
0)
#2125
b000 %
b0000000000000000 &
1)
#2130
0)
#2135
0$
1)
